-------------------------------------------------------------------------------
Test set: com.samson.tests.repository.TaskDaoTest
-------------------------------------------------------------------------------
Tests run: 5, Failures: 0, Errors: 0, Skipped: 0, Time elapsed: 0.543 sec - in com.samson.tests.repository.TaskDaoTest
